JatApp - Marketing Analysis
…
# check
# 1 manually, equallity with group median
market_data %>% 
  group_by(Country, Education) %>% summarise(median(Income,na.rm = T))

## `summarise()` has grouped output by 'Country'. You can override using the `.groups` argument.

## # A tibble: 38 x 3
## # Groups:   Country [8]
##    Country Education  `median(Income, na.rm = T)`
##    <fct>   <fct>                            <dbl>
##  1 AUS     2n Cycle                        40180 
##  2 AUS     Basic                           22256.
##  3 AUS     Graduation                      56796 
##  4 AUS     Master                          53367 
##  5 AUS     PhD                             48948 
##  6 CA      2n Cycle                        46116.
##  7 CA      Basic                           20425 
##  8 CA      Graduation                      52113 
##  9 CA      Master                          54348 
## 10 CA      PhD                             59187 
## #  with 28 more rows

market_data_fixed %>% filter(is.na(Income)) %>% select(c(Education,Income, Country, Income_fixed))

## # A tibble: 24 x 4
## # Groups:   Country, Education [14]
##    Education  Income Country Income_fixed
##    <fct>       <dbl> <fct>          <dbl>
##  1 PhD            NA GER           61426.
##  2 Graduation     NA US            55801 
##  3 PhD            NA AUS           48948 
##  4 Graduation     NA AUS           56796 
##  5 PhD            NA CA            59187 
##  6 2n Cycle       NA GER           35523 
##  7 Master         NA US            47570 
##  8 Graduation     NA GER           57160.
##  9 2n Cycle       NA AUS           40180 
## 10 Master         NA AUS           53367 
## #  with 14 more rows
…
